15 0.435000 0.433824 0.358000 0.720588
15 0.172000 0.497059 0.268000 0.541176
15 0.795000 0.552941 0.410000 0.758824
18 0.786000 0.566176 0.364000 0.779412
18 0.435000 0.463235 0.290000 0.750000
18 0.149000 0.514706 0.250000 0.594118
