15 0.718182 0.559091 0.342424 0.724242
15 0.453788 0.490909 0.198485 0.515152
15 0.218182 0.513636 0.215152 0.645455
18 0.215152 0.507576 0.215152 0.645455
18 0.445455 0.484848 0.178788 0.521212
18 0.724242 0.507576 0.330303 0.615152
