15 0.752500 0.663125 0.230000 0.441250
15 0.409583 0.683750 0.205833 0.357500
15 0.093333 0.636875 0.146667 0.306250
15 0.217917 0.642500 0.175833 0.352500
18 0.216667 0.636875 0.155000 0.358750
18 0.072083 0.641875 0.120833 0.308750
18 0.405833 0.688750 0.191667 0.387500
18 0.580000 0.722500 0.155000 0.290000
18 0.753333 0.680625 0.225000 0.488750
