15 0.714091 0.630906 0.280909 0.541339
15 0.496364 0.533465 0.147273 0.433071
15 0.164091 0.483268 0.226364 0.537402
15 0.854091 0.314961 0.208182 0.224409
18 0.734091 0.641732 0.284545 0.515748
18 0.510455 0.504921 0.151818 0.383858
18 0.160000 0.534449 0.254545 0.529528
18 0.850000 0.288386 0.183636 0.187008
