16 0.665094 0.565903 0.575472 0.340974
16 0.369811 0.809456 0.128302 0.237822
16 0.184906 0.683381 0.301887 0.392550
18 0.183019 0.671920 0.301887 0.386819
18 0.366981 0.803725 0.137736 0.272206
18 0.658491 0.560172 0.543396 0.352436
