16 0.160156 0.482292 0.189062 0.389583
16 0.304688 0.530208 0.181250 0.302083
16 0.326562 0.300000 0.143750 0.150000
16 0.496094 0.485417 0.195312 0.483333
16 0.775000 0.458333 0.171875 0.412500
18 0.160156 0.482292 0.173437 0.397917
18 0.316406 0.539583 0.104688 0.312500
18 0.323437 0.302083 0.137500 0.150000
18 0.492969 0.498958 0.157812 0.468750
18 0.764844 0.470833 0.157812 0.383333
